{
  "subject": [
    {
      "id": 1,
      "title": "Subject 1"
    },
    {
      "id": 2,
      "title": "Subject 2"
    },
    {
      "id": 3,
      "title": "Subject 3"
    },
    {
      "id": 4,
      "title": "Subject 4"
    },
    {
      "id": 5,
      "title": "Subject 5"
    },
    {
      "id": 6,
      "title": "Subject 6"
    }
  ],
  
  "visitSummery": {
        "data": [{
                "visitNumber": "VST809",
                "scheduleDateTime": "03/28/2018",
                "auditDateTime": "03/23/2018",
                "originalScheduleDateTime": "03/28/2018",
                "visitStartDateTime": "03/23/2018",
                "visitCompletionDateTime": "",
                "privatePresent": "",
                "creationDate": "03/23/2018",
                "status": 7,
                "formVersion": 1.0,
                "formCycle": "Not Applicable",
                "previousStatus": 0,
                "franchiseeName": "001-Fran-Alabama",
                "franchiseeNo": 148567786,
                "statusValue": "In Process",
                "franchiseeNoUsers": 546847628,
                "visitId": 260815517,
                "assignToName": "Alabama Coporate",
                "assignTo": 1550417586,
                "createdByName": "FranConnect Administrator",
                "createdBy": 1,
                "visitName": "Equipment Inspection",
                "taskCount": 2,
                "taskCountReports": 2,
                "taskCountNoLinks": 2,
                "franchiseeStatus": 1,
                "formName": "Equipment Inspection",
                "masterVisitId": 819928520,
                "inspectionFormId": 819928520,
                "formType": 1,
                "formLayout": 1,
                "ownerResponse": true,
                "ownerSubmitted": "D",
                "auditorSubmitted": "D",
                "isFranVisit": "",
                "ownerScore": "--",
                "ownerScoreLink": "--",
                "ownerScoreLinkForReport": "--",
                "ownerScoreSpan": "--",
                "score": "25.00",
                "actions": [{
                        "displayName": "Resume Visit"
                    }, {
                        "displayName": "Visit Summary as PDF"
                    }, {
                        "displayName": "Modify"
                    }, {
                        "displayName": "View Logs"
                    }]
            }, {
                "visitNumber": "VST809",
                "scheduleDateTime": "03/28/2018",
                "auditDateTime": "03/23/2018",
                "originalScheduleDateTime": "03/28/2018",
                "visitStartDateTime": "03/23/2018",
                "visitCompletionDateTime": "",
                "privatePresent": "",
                "creationDate": "03/23/2018",
                "status": 7,
                "formVersion": 1.0,
                "formCycle": "Not Applicable",
                "previousStatus": 0,
                "franchiseeName": "001-Fran-Alabama",
                "franchiseeNo": 148567786,
                "statusValue": "In Process",
                "franchiseeNoUsers": 546847628,
                "visitId": 260815517,
                "assignToName": "Alabama Coporate",
                "assignTo": 1550417586,
                "createdByName": "FranConnect Administrator",
                "createdBy": 1,
                "visitName": "Equipment Inspection",
                "taskCount": 2,
                "taskCountReports": 2,
                "taskCountNoLinks": 2,
                "franchiseeStatus": 1,
                "formName": "Equipment Inspection",
                "masterVisitId": 819928520,
                "inspectionFormId": 819928520,
                "formType": 1,
                "formLayout": 1,
                "ownerResponse": true,
                "ownerSubmitted": "D",
                "auditorSubmitted": "D",
                "isFranVisit": "",
                "ownerScore": "--",
                "ownerScoreLink": "--",
                "ownerScoreLinkForReport": "--",
                "ownerScoreSpan": "--",
                "score": "25.00",
                "actions": [{
                        "displayName": "Resume Visit"
                    }, {
                        "displayName": "Visit Summary as PDF"
                    }, {
                        "displayName": "Modify"
                    }, {
                        "displayName": "View Logs"
                    }]
            }],
        "page": {
            "size": 20,
            "totalRecords": 20234,
            "totalPages": 1012,
            "pageId": 10
        }
    },
  

"formData" : {
  "name": {
    "label": "Name",
    "value": "Juri",
    "type": "text",
    "validation": {
      "required": true
    }
  },
  "age": {
    
    "label": "Age",
    "value": 32,
    "type": "text"
  },
  "gender":{
    
    "label": "Gender",
    "value": "M",
    "type": "radio",
    "options": [{ "label": "Male", "value": "M"}, { "label": "Female", "value": "F" }]
  },
   "city":{
     
    "label": "City",
    "value": "39010",
    "type": "select",
    "options": [
      { "label": "(choose one)", "value": "" },
      { "label": "Bolzano", "value": "39100" },
      { "label": "Meltina", "value": "39010" },
      { "label": "Appiano", "value": "39057" }
    ],
    "validation": {
      "required": true
    }
  }
},
  
  
  "posts": [
    {
      "id": 1,
      "title": "FranConnect Post 1"
    },
    {
      "id": 2,
      "title": "FranConnect Post 2"
    },
    {
      "id": 3,
      "title": "FranConnect Post 3"
    },
    {
      "id": 4,
      "title": "FranConnect Post 4"
    },
    {
      "id": 5,
      "title": "FranConnect Post 5"
    },
    {
      "id": 6,
      "title": "FranConnect Post 6"
    },
     {
      "id": 1,
      "title": "FranConnect Post 1"
    },
    {
      "id": 2,
      "title": "FranConnect Post 2"
    },
    {
      "id": 3,
      "title": "FranConnect Post 3"
    },
    {
      "id": 4,
      "title": "FranConnect Post 4"
    },
    {
      "id": 5,
      "title": "FranConnect Post 5"
    },
    {
      "id": 6,
      "title": "FranConnect Post 6"
    }
  ],
  "comments": [
    {
      "id": 1,
      "body": "FranConnect some comment",
      "postId": 1
    },
    {
      "id": 2,
      "body": "FranConnect some comment",
      "postId": 2
    },
     {
      "id": 3,
      "body": "FranConnect some comment",
      "postId": 3
    },
    {
      "id": 4,
      "body": "FranConnect some comment",
      "postId": 4
    },
     {
      "id": 5,
      "body": "FranConnect some comment",
      "postId": 5
    },
    {
      "id": 6,
      "body": "FranConnect some comment",
      "postId": 6
    }
  ],
  "profile": {
    "name": "typicode"
  }
}
